Adding models to butcher
…
new_model_butcher() leverages usethis to:

Add the new blobber modeling package under Suggests in the butcher package description file.

Generate a skeleton file under the R directory with all possible axe methods for blob.

Generate an associated test file under tests/testthat to test new blob axe methods.

As shown by the R scripts attached to other model objects that exist in this package, not all axe generics are used. In fact, if you take a look at the elnet.R script, the only component of the model object fit from the package glmnet that might be worth axing is the call. To help target what is worth removing from blob, we recommend first beginning with butcher::weigh() to identify which parts of the model object take up the most memory.

> weigh(fitted_blob_object)
# A tibble: 25 x 2
   object            size
   <chr>            <dbl>
 1 terms         4.01    
 2 qr.qr         0.00666 
 3 residuals     0.00286 
 4 fitted.values 0.00286 
 5 effects       0.0014  
 6 coefficients  0.00109 
 7 call          0.000728
 8 model.mpg     0.000304
 9 model.cyl     0.000304
10 model.disp    0.000304
# … with 15 more rows
…
