butcher
…
library(lobstr)
obj_size(in_house_model())
#> 8,022,440 B

When it is fundamentally the same as our old_lm, which only takes up:

obj_size(old_lm)
#> 22,224 B

Ideally, we want to avoid saving this new in_house_model() on disk, when we could have something like old_lm that takes up less memory. So, what the heck is going on here? We can examine possible issues with a fitted model object using the butcher package:

big_lm <- in_house_model()
butcher::weigh(big_lm, threshold = 0, units = "MB")
#> # A tibble: 25 x 2
#>    object            size
#>    <chr>            <dbl>
#>  1 terms         8.01    
#>  2 qr.qr         0.00666 
#>  3 residuals     0.00286 
#>  4 fitted.values 0.00286 
#>  5 effects       0.0014  
#>  6 coefficients  0.00109 
#>  7 call          0.000728
#>  8 model.mpg     0.000304
#>  9 model.cyl     0.000304
#> 10 model.disp    0.000304
#> # … with 15 more rows
…
To avoid carrying possible junk in our production pipeline, whether it be associated with an lm model (or something more complex), we can leverage axe_env() within the butcher package. In other words,

cleaned_lm <- butcher::axe_env(big_lm, verbose = TRUE)
#> ✔ Memory released: '7,999,256 B'

Comparing it against our old_lm, we find:

butcher::weigh(cleaned_lm, threshold = 0, units = "MB")
#> # A tibble: 25 x 2
#>    object            size
#>    <chr>            <dbl>
#>  1 terms         0.00789 
#>  2 qr.qr         0.00666 
#>  3 residuals     0.00286 
#>  4 fitted.values 0.00286 
#>  5 effects       0.0014  
#>  6 coefficients  0.00109 
#>  7 call          0.000728
#>  8 model.mpg     0.000304
#>  9 model.cyl     0.000304
#> 10 model.disp    0.000304
#> # … with 15 more rows

…it now takes the same memory on disk:

butcher::weigh(old_lm, threshold = 0, units = "MB")
#> # A tibble: 25 x 2
#>    object            size
#>    <chr>            <dbl>
#>  1 terms         0.00781 
#>  2 qr.qr         0.00666 
#>  3 residuals     0.00286 
#>  4 fitted.values 0.00286 
#>  5 effects       0.0014  
#>  6 coefficients  0.00109 
#>  7 call          0.000728
#>  8 model.mpg     0.000304
#>  9 model.cyl     0.000304
#> 10 model.disp    0.000304
#> # … with 15 more rows
…
